<svg width="16" height="16" viewBox="0 0 16 16" fill="none" xmlns="http://www.w3.org/2000/svg">
<g clip-path="url(#clip0)">
<path d="M8.61588 2.677L1.64588 9.646C1.58466 9.70763 1.54054 9.78414 1.51788 9.868L0.0178845 15.368C-0.00532637 15.4531 -0.00563723 15.5427 0.0169835 15.6279C0.0396041 15.7131 0.0843521 15.7909 0.146691 15.8532C0.209029 15.9155 0.286742 15.9603 0.371951 15.9829C0.45716 16.0055 0.546835 16.0052 0.631885 15.982L6.13188 14.482C6.21575 14.4593 6.29226 14.4152 6.35388 14.354L13.3229 7.384L8.61588 2.677Z" fill="#212121"/>
<path d="M15.561 3.025L12.975 0.438997C12.6937 0.15779 12.3122 -0.000183105 11.9145 -0.000183105C11.5168 -0.000183105 11.1353 0.15779 10.854 0.438997L9.677 1.616L14.384 6.323L15.561 5.146C15.8422 4.86471 16.0002 4.48324 16.0002 4.0855C16.0002 3.68775 15.8422 3.30629 15.561 3.025Z" fill="#212121"/>
</g>
<defs>
<clipPath id="clip0">
<rect width="16" height="16" fill="white"/>
</clipPath>
</defs>
</svg>
