<svg width="22" height="22" viewBox="0 0 22 22" fill="none" xmlns="http://www.w3.org/2000/svg">
<path d="M19 0H3C2.20435 0 1.44129 0.31607 0.87868 0.87868C0.31607 1.44129 0 2.20435 0 3V19C0 19.7956 0.31607 20.5587 0.87868 21.1213C1.44129 21.6839 2.20435 22 3 22H19C19.7956 22 20.5587 21.6839 21.1213 21.1213C21.6839 20.5587 22 19.7956 22 19V3C22 2.20435 21.6839 1.44129 21.1213 0.87868C20.5587 0.31607 19.7956 0 19 0ZM3 2H19C19.2652 2 19.5196 2.10536 19.7071 2.29289C19.8946 2.48043 20 2.73478 20 3V14H14V17H8V14H2V3C2 2.73478 2.10536 2.48043 2.29289 2.29289C2.48043 2.10536 2.73478 2 3 2Z" fill="white"/>
<path d="M9.00006 11.9999C8.73486 11.9999 8.48055 11.8945 8.29306 11.7069L5.58606 8.99994L7.00006 7.58594L9.00006 9.58594L15.0001 3.58594L16.4141 4.99994L9.70706 11.7069C9.51957 11.8945 9.26525 11.9999 9.00006 11.9999Z" fill="white"/>
</svg>
