<svg width="16" height="20" viewBox="0 0 16 20" fill="none" xmlns="http://www.w3.org/2000/svg">
<path d="M0 0V20H2V13H15C15.1809 12.9999 15.3584 12.9508 15.5135 12.8578C15.6687 12.7648 15.7957 12.6315 15.8811 12.472C15.9665 12.3125 16.007 12.1329 15.9983 11.9522C15.9897 11.7715 15.9322 11.5966 15.832 11.446L13.202 7.5L15.832 3.555C15.9325 3.4044 15.9902 3.22935 15.999 3.04852C16.0078 2.86769 15.9673 2.68786 15.8819 2.52823C15.7965 2.36861 15.6693 2.23516 15.514 2.14213C15.3587 2.04909 15.181 1.99997 15 2H2V0H0Z" fill="#3EB9FF"/>
</svg>
