<svg width="20" height="20" viewBox="0 0 14 16" fill="none" xmlns="http://www.w3.org/2000/svg">
<path d="M12 6L14 1H2C2 0.4 1.6 0 1 0C0.4 0 0 0.4 0 1V15C0 15.6 0.4 16 1 16C1.6 16 2 15.6 2 15V11H14L12 6Z" fill="#909090"/>
</svg>
