<svg opacity="0.5" width="18" height="18" viewBox="0 0 16 16" fill="none" xmlns="http://www.w3.org/2000/svg">
<path d="M0 8V15C0 15.6 0.4 16 1 16H15C15.6 16 16 15.6 16 15V8H0Z" fill="#26272E"/>
<path d="M16 6V4C16 3.4 15.6 3 15 3H8.4L5.7 0.3C5.5 0.1 5.3 0 5 0H1C0.4 0 0 0.4 0 1V6H16Z" fill="#26272E"/>
</svg>
