<svg width="18" height="18" viewBox="0 0 24 22" fill="none" xmlns="http://www.w3.org/2000/svg">
<path d="M7 6H17" stroke="#F45B34" stroke-width="2" stroke-miterlimit="10" stroke-linecap="square"/>
<path d="M22 6L12 20L2 6L6 1H18L22 6Z" stroke="#F45B34" stroke-width="2" stroke-miterlimit="10" stroke-linecap="square"/>
</svg>
