<svg width="18" height="18" viewBox="0 0 24 24" fill="none" xmlns="http://www.w3.org/2000/svg">
<path d="M12 2.48999L15.09 8.74999L22 9.75399L17 14.628L18.18 21.51L12 18.262L5.82 21.51L7 14.628L2 9.75399L8.91 8.74999L12 2.48999Z" stroke="white" stroke-width="2" stroke-miterlimit="10" stroke-linecap="square"/>
</svg>
